Missing data:
…
```r
gg_miss_upset(dat,text.scale = 2)
```

<img src="MissingnessPreso_files/figure-html/upset missingness-1.png" style="display: block; margin: auto;" />

---

# The package nanair also has nice functions for tibbles - as_shadow

```r
dat_shadow <- as_shadow(dat)
dat_shadow
# A tibble: 768 x 9
   log1p_pregnant_~ log1p_glucose_NA pressure_NA triceps_NA
   <fct>            <fct>            <fct>       <fct>     
 1 !NA              !NA              !NA         !NA       
 2 !NA              !NA              !NA         !NA       
 3 !NA              !NA              !NA         NA        
 4 !NA              !NA              !NA         !NA       
 5 !NA              !NA              !NA         !NA       
 6 !NA              !NA              !NA         NA        
 7 !NA              !NA              !NA         !NA       
 8 !NA              !NA              NA          NA        
 9 !NA              !NA              !NA         !NA       
10 !NA              !NA              !NA         NA        
# ... with 758 more rows, and 5 more variables: log1p_insulin_NA <fct>,
#   log1p_mass_NA <fct>, log1p_pedigree_NA <fct>, log1p_age_NA <fct>,
#   diabetes_NA <fct>
```

---
  
# The package nanair also has nice functions for tibbles - bind_shadow  

```r
shadow_dat <- dat  %>%
  bind_shadow()
shadow_dat
# A tibble: 768 x 18
   log1p_pregnant log1p_glucose pressure triceps log1p_insulin log1p_mass
            <dbl>         <dbl>    <dbl>   <dbl>         <dbl>      <dbl>
 1          1.95           5.00       72      35         NA          3.54
 2          0.693          4.45       66      29         NA          3.32
 3          2.20           5.21       64      NA         NA          3.19
 4          0.693          4.50       66      23          4.55       3.37
 5          0              4.93       40      35          5.13       3.79
 6          1.79           4.76       74      NA         NA          3.28
 7          1.39           4.37       50      32          4.49       3.47
 8          2.40           4.75       NA      NA         NA          3.59
 9          1.10           5.29       70      45          6.30       3.45
10          2.20           4.84       96      NA         NA         NA   
# ... with 758 more rows, and 12 more variables: log1p_pedigree <dbl>,
#   log1p_age <dbl>, diabetes <fct>, log1p_pregnant_NA <fct>,
#   log1p_glucose_NA <fct>, pressure_NA <fct>, triceps_NA <fct>,
#   log1p_insulin_NA <fct>, log1p_mass_NA <fct>, log1p_pedigree_NA <fct>,
#   log1p_age_NA <fct>, diabetes_NA <fct>
```
…
